{
  "hash": "888ae9a8f7354812f5fd2cd484863fd7",
  "result": {
    "markdown": "# Looking Up the Trending Topics\n\n## Problem\n\nYou want to keep track of the trending/\"hot\" topics on Bluesky over a period of time.\n\n## Solution\n\nUse methods in [app.bsky.feed](https://atproto.blue/en/latest/atproto/atproto.xrpc_client.models.app.bsky.feed.html) with the \"[What's Hot](https://bsky.app/profile/did:plc:z72i7hdynmk6r22z27h6tvur/feed/whats-hot)\" Bluesky-network-wide feed.\n\n## Discussion\n\nFor the moment, Bluesky purports to believe you [own your own attention](https://blueskyweb.xyz/blog/3-30-2023-algorithmic-choice). This means you choose how you engage with content on Bluesky, and can use the built-in algorithmic feeds provided by Bluesky, pick from published algorithmic feeds created by folks you trust, or build your own.\n\nThe URL for the \"What's Hot\" feed gives us some information we can use to access it programmatically:\n\n```\nhttps://bsky.app/profile/did:plc:z72i7hdynmk6r22z27h6tvur/feed/whats-hot\n```\n\n- `did:plc:z72i7hdynmk6r22z27h6tvur` is the _actor_\n- `whats-hot` is the short name of the feed\n\nWe'll need a full `at://` URI to be able to get access to it, so let's look for it using the API:\n\n\n::: {.cell}\n\n```{.r .cell-code}\nlibrary(reticulate)\n\natproto <- import(\"atproto\")\n\nclient <- atproto$Client()\n\nprofile <- client$login(Sys.getenv(\"BSKY_USER\"), Sys.getenv(\"BSKY_PASS\"))\n\nbsky_feeds <- client$bsky$feed$get_actor_feeds(list(actor = \"did:plc:z72i7hdynmk6r22z27h6tvur\"))\n\nsort(names(bsky_feeds$feeds[[1]]))\n```\n\n::: {.cell-output .cell-output-stdout}\n```\n [1] \"avatar\"            \"cid\"               \"creator\"          \n [4] \"description\"       \"descriptionFacets\" \"did\"              \n [7] \"displayName\"       \"indexedAt\"         \"likeCount\"        \n[10] \"uri\"               \"viewer\"           \n```\n:::\n\n```{.r .cell-code}\ndata.frame(\n  display_name = sapply(bsky_feeds$feeds, \\(.x) .x$displayName),\n  uri = sapply(bsky_feeds$feeds, \\(.x) .x$uri)\n)\n```\n\n::: {.cell-output .cell-output-stdout}\n```\n          display_name\n1              Mutuals\n2      Best of Follows\n3 Popular With Friends\n4         Bluesky Team\n5   What's Hot Classic\n6           What's Hot\n                                                                            uri\n1         at://did:plc:z72i7hdynmk6r22z27h6tvur/app.bsky.feed.generator/mutuals\n2 at://did:plc:z72i7hdynmk6r22z27h6tvur/app.bsky.feed.generator/best-of-follows\n3    at://did:plc:z72i7hdynmk6r22z27h6tvur/app.bsky.feed.generator/with-friends\n4       at://did:plc:z72i7hdynmk6r22z27h6tvur/app.bsky.feed.generator/bsky-team\n5     at://did:plc:z72i7hdynmk6r22z27h6tvur/app.bsky.feed.generator/hot-classic\n6       at://did:plc:z72i7hdynmk6r22z27h6tvur/app.bsky.feed.generator/whats-hot\n```\n:::\n:::\n\n\nWe can use the \"What's Hot\" URI to get a list of the items in that feed:\n\n\n::: {.cell}\n\n```{.r .cell-code}\nclient$bsky$feed$get_feed(\n  list(\n    feed = \"at://did:plc:z72i7hdynmk6r22z27h6tvur/app.bsky.feed.generator/whats-hot\"\n  )\n) -> hot_feed\n```\n:::\n\n\nI've been glossing over the `cursor` slot in most of the return values since this is just a cookbook to get folks started. For any method that supports cursor-based pagination, you can add it as a parameter to the list. For example, this:\n\n\n::: {.cell}\n\n```{.r .cell-code}\nclient$bsky$feed$get_feed(\n  list(\n    feed = \"at://did:plc:z72i7hdynmk6r22z27h6tvur/app.bsky.feed.generator/whats-hot\",\n    cursor = hot_feed$cursor\n  )\n)\n```\n:::\n\n\nwill get the next 50 (the current default page size) items in the feed.\n\nInside `hot_feed` has a `feed` slot which is a list of posts. Each post is a large, nested structure which we'll look at via the Python object pretty-printed view of one example record:\n\n```\nFeedViewPost(\n  post=PostView(\n    author=ProfileViewBasic(\n      did='did:plc:xydmw4rhlnb4mrz5eyw3z6ak',\n      handle='yesitscolin.bsky.social',\n      avatar='https://cdn.bsky.social/imgproxy/_XZvSpVnwSOoZYun4CrxOERXmtD0FgOTz9ffXqbUnmE/rs:fill:1000:1000:1:0/plain/bafkreidluvoz62jftcf6iqsjjo7x46s237jbr6kkluecsallz6oci2k33q@jpeg',\n      displayName='Colin',\n      labels=[],\n      viewer=ViewerState(\n        blockedBy=False,\n        blocking=None,\n        followedBy=None,\n        following=None,\n        muted=False,\n        mutedByList=None,\n        _type='app.bsky.actor.defs#viewerState'\n      ),\n      _type='app.bsky.actor.defs#profileViewBasic')\n    ,\n    cid='bafyreigrcsumojr4k2cy7alnloeyxm464ab4exdt2orcfluvjzpe5t5uu4',\n    indexedAt='2023-07-08T13:16:24.879Z',\n    record=Main(\n      createdAt='2023-07-08T13:16:24.760Z',\n      text='Shoutout to everyone who still cuts these up before throwing them away because they told us all when we were kids that fish get stuck in them and die…',\n      embed=Main(\n        images=[\n          Image(\n            alt='A hand holding a plastic rings drink container',\n            image=<atproto.xrpc_client.models.blob_ref.BlobRef object at 0x168b58890>,\n            _type='app.bsky.embed.images#image'\n        )],\n        _type='app.bsky.embed.images'),\n      entities=None,\n      facets=None,\n      langs=['en'],\n      reply=None,\n      _type='app.bsky.feed.post'\n    ),\n    uri='at://did:plc:xydmw4rhlnb4mrz5eyw3z6ak/app.bsky.feed.post/3jzzabaprgx26',\n    embed=View(\n      images=[ViewImage(\n        alt='A hand holding a plastic rings drink container',\n        fullsize='https://cdn.bsky.social/imgproxy/LWNCHRKfUz-hYAc5f9xwtL7f7BhzMgtEVdXX8c6EBIY/rs:fit:2000:2000:1:0/plain/bafkreihrnrzbyypa3cmsk2bgruci7hsssjnv3l7dlv5x257utpzg7twcim@jpeg',\n        thumb='https://cdn.bsky.social/imgproxy/BAD839Z-NtgH_PHGUbkaJOlq2E8KeXJbPfCC8xDVmNY/rs:fit:1000:1000:1:0/plain/bafkreihrnrzbyypa3cmsk2bgruci7hsssjnv3l7dlv5x257utpzg7twcim@jpeg',\n        _type='app.bsky.embed.images#viewImage'\n      )],\n      _type='app.bsky.embed.images#view'\n    ),\n    labels=[],\n    likeCount=555,\n    replyCount=76,\n    repostCount=42,\n    viewer=ViewerState(\n      like=None,\n      repost=None,\n      _type='app.bsky.feed.defs#viewerState'\n    ),\n    _type='app.bsky.feed.defs#postView'),\n  reason=None,\n  reply=None,\n  _type='app.bsky.feed.defs#feedViewPost'\n)\n```\n\nYou can pick and choose what components from each nested structure you want and then do something similar to what I suggested [in the Twitter recipes](https://rud.is/books/21-recipes/looking-up-the-trending-topics.html#discussion-1) to save the data locally.\n\n## See Also\n\n- [app.bsky.feed | AT Protocol](https://atproto.com/lexicons/app-bsky-feed)",
    "supporting": [],
    "filters": [
      "rmarkdown/pagebreak.lua"
    ],
    "includes": {},
    "engineDependencies": {},
    "preserve": {},
    "postProcess": true
  }
}